<svg xmlns="http://www.w3.org/2000/svg" width="42" height="42" viewBox="0 0 42 42">
    <g fill="none" fill-rule="evenodd">
        <path fill="#FFD93B" d="M21 42c11.598 0 21-9.402 21-21S32.598 0 21 0 0 9.402 0 21s9.402 21 21 21z"/>
        <path fill="#F4C534" d="M33.714 4.285C38.75 8.12 42 14.18 42 21c0 11.598-9.402 21-21 21-6.82 0-12.88-3.25-16.715-8.286A20.905 20.905 0 0 0 17 38c11.598 0 21-9.402 21-21 0-4.686-1.535-9.014-4.13-12.507z"/>
        <ellipse cx="14" cy="18" fill="#3E4347" fill-rule="nonzero" rx="3" ry="4"/>
        <ellipse cx="28" cy="18" fill="#3E4347" fill-rule="nonzero" rx="3" ry="4"/>
        <path fill="#3E4347" fill-rule="nonzero" d="M27.57 29.178C25.518 27.755 23.248 27 20.897 27c-2.265 0-4.457.701-6.45 2.028l1.107 1.665C17.229 29.579 19.038 29 20.897 29c1.93 0 3.806.624 5.533 1.822l1.14-1.644z"/>
    </g>
</svg>
