<svg xmlns="http://www.w3.org/2000/svg" width="42" height="42" viewBox="0 0 42 42">
    <path fill="#7C6496" fill-rule="evenodd" d="M21 0c11.598 0 21 9.402 21 21s-9.402 21-21 21S0 32.598 0 21 9.402 0 21 0zm0 2C10.507 2 2 10.507 2 21s8.507 19 19 19 19-8.507 19-19S31.493 2 21 2zm0 23.77c3.866 0 7-2.223 7 .777s-3.134 5.43-7 5.43-7-2.43-7-5.43c0-3 3.134-.776 7-.776zM13.914 14c1.917 0 3.763.694 5.433 1.995l.293.236-1.28 1.538C16.957 16.6 15.452 16 13.914 16c-1.382 0-2.737.485-4.017 1.432l-.273.21-1.248-1.563C10.075 14.723 11.958 14 13.914 14zm14 0c2.03 0 3.98.778 5.726 2.231l-1.28 1.538C30.957 16.6 29.452 16 27.914 16c-1.48 0-2.931.557-4.29 1.642l-1.248-1.563C24.075 14.723 25.958 14 27.914 14z" opacity=".596"/>
</svg>
