<svg xmlns="http://www.w3.org/2000/svg" width="42" height="42" viewBox="0 0 42 42">
    <path fill="#7C6496" fill-rule="evenodd" d="M21 0c11.598 0 21 9.402 21 21s-9.402 21-21 21S0 32.598 0 21 9.402 0 21 0zm0 2C10.507 2 2 10.507 2 21s8.507 19 19 19 19-8.507 19-19S31.493 2 21 2zm8 25.793C29 31.221 25.418 34 21 34s-8-2.779-8-6.207 3.582-.887 8-.887 8-2.54 8 .887zM16.12 12c1.652 0 2.991 1.379 2.991 3.08 0 .988-.524 1.771-1.155 2.431-.42.44-1.887 1.936-4.4 4.489-2.494-2.578-3.972-4.083-4.433-4.514C8.433 16.838 8 16.053 8 15.08 8 13.379 9.34 12 10.991 12c1.089 0 2.041.598 2.565 1.493C14.079 12.598 15.03 12 16.12 12zm15 0c1.652 0 2.991 1.379 2.991 3.08 0 .988-.524 1.771-1.155 2.431-.42.44-1.887 1.936-4.4 4.489-2.494-2.578-3.972-4.083-4.433-4.514-.69-.648-1.123-1.433-1.123-2.406 0-1.701 1.34-3.08 2.991-3.08 1.089 0 2.041.598 2.565 1.493C29.079 12.598 30.03 12 31.12 12z" opacity=".596"/>
</svg>
