<svg xmlns="http://www.w3.org/2000/svg" width="42" height="42" viewBox="0 0 42 42">
    <path fill="#7C6496" fill-rule="nonzero" d="M21 0c11.598 0 21 9.402 21 21s-9.402 21-21 21S0 32.598 0 21 9.402 0 21 0zm0 2C10.507 2 2 10.507 2 21s8.507 19 19 19 19-8.507 19-19S31.493 2 21 2zm8 26v2H14v-2h15zM18 15v2h-1.268a2 2 0 1 1-3.465 0H8v-2h10zm16 0v2h-1.268a2 2 0 1 1-3.465 0H24v-2h10z" opacity=".596"/>
</svg>
