<svg xmlns="http://www.w3.org/2000/svg" width="42" height="42" viewBox="0 0 42 42">
    <g fill="none" fill-rule="evenodd">
        <path fill="#FFD93B" d="M21 42c11.598 0 21-9.402 21-21S32.598 0 21 0 0 9.402 0 21s9.402 21 21 21z"/>
        <path fill="#F4C534" d="M33.714 4.285C38.75 8.12 42 14.18 42 21c0 11.598-9.402 21-21 21-6.82 0-12.88-3.25-16.715-8.286A20.905 20.905 0 0 0 17 38c11.598 0 21-9.402 21-21 0-4.686-1.535-9.014-4.13-12.507z"/>
        <circle cx="14" cy="21" r="3" fill="#3E4347" fill-rule="nonzero"/>
        <circle cx="28" cy="21" r="3" fill="#3E4347" fill-rule="nonzero"/>
        <path fill="#3E4347" fill-rule="nonzero" d="M8.514 16.32l10 5.554.972-1.748-10-5.555zM33.486 16.32l-10 5.554-.972-1.748 10-5.555zM27.57 31.178C25.518 29.755 23.248 29 20.897 29c-2.265 0-4.457.701-6.45 2.028l1.107 1.665C17.229 31.579 19.038 31 20.897 31c1.93 0 3.806.624 5.533 1.822l1.14-1.644z"/>
        <g stroke="#E24B4B" stroke-width="2" opacity=".47">
            <path d="M27.551 4.784l1.026 2.82-2.819 1.026M30.37 3.758l1.027 2.82 2.819-1.027M30.63 13.242l-1.027-2.82-2.819 1.027M33.449 12.216l-1.026-2.82 2.819-1.026"/>
        </g>
    </g>
</svg>
