<svg xmlns="http://www.w3.org/2000/svg" width="20" height="17" viewBox="0 0 20 17">
    <path fill="#FFF" fill-rule="evenodd" d="M20 5.439c-1.333.113-2.58.8-3.85 2.752C15.015 9.945 11.673 16.072.69 17c.885-1.367 7.215-2.497 3.62-7.547C2.92 7.507 2.974 6.847 3.113 6.4 1.95 5.993 1.799 4.215 2.146 3.68c-.98-.377-1.132-1.756-.814-2.15 0 0-1.01-.413-1.332-1.416 0 0 2.416-.795 5.655 1.816 3.232 2.61 3.863 4.197 6.1 4.197 2.265 0 3.746-2.294 5.885-2.294 0 0 1.598-.011 2.36 1.606"/>
</svg>
